[
    {
        "article": {
            "title": "laboris eu culpa Lorem elit",
            "body_html": "Officia qui aute ad anim elit anim consequat. Laborum deserunt tempor do dolor occaecat voluptate aute sit deserunt adipisicing culpa esse. Enim minim ipsum deserunt ut. Magna ut mollit non ea consectetur ipsum sit id aliqua dolore. Reprehenderit labore incididunt incididunt exercitation Lorem qui in quis commodo eiusmod nisi anim. Minim sit exercitation laborum et exercitation aliquip consequat veniam cillum.\r\nId id esse cupidatat consequat aute do minim ex minim ea id culpa ipsum. Do do do culpa eu duis eiusmod reprehenderit Lorem duis qui nisi nostrud dolore ipsum. Aliqua elit ut ea laborum pariatur sint Lorem eu non elit pariatur tempor. Cillum velit velit incididunt est anim elit ea occaecat ullamco ullamco aliquip consectetur ut mollit. Labore adipisicing deserunt consequat nostrud tempor nostrud officia exercitation nulla laboris aliqua. Velit pariatur labore mollit nulla ut aute aliquip non enim.\r\n",
            "summary_html": "Voluptate et sunt ut amet aliquip ex mollit irure ad sint sit labore. Esse aute pariatur in eu ad duis excepteur eu. Officia nisi voluptate sit cillum elit occaecat dolore officia nisi reprehenderit consequat officia cupidatat.\r\n",
            "tags": [
                "tempor",
                "exercitation",
                "esse",
                "qui",
                "mollit",
                "est",
                "tempor"
            ],
            "image": {
                "src": "https://source.unsplash.com/1600x900/?busines,work",
                "alt": "aliquip sint cillum sunt velit"
            }
        }
    },
    {
        "article": {
            "title": "ullamco exercitation ex adipisicing nisi",
            "body_html": "Eu voluptate proident non anim ipsum. Ipsum est laboris deserunt cillum. Aute elit duis minim sint commodo in ea mollit laboris dolore ipsum do irure veniam. Ea sit duis anim minim ut id dolor sint deserunt occaecat veniam esse. Ad culpa excepteur Lorem dolore qui ex deserunt duis ex aliqua nulla qui dolore. Ad incididunt ea veniam proident ipsum dolore nulla ut in magna exercitation nostrud.\r\nSit culpa adipisicing Lorem laborum. Reprehenderit commodo mollit et in aliquip est nostrud laboris. Nisi proident esse consectetur excepteur dolore nulla adipisicing nisi voluptate exercitation dolore elit sit Lorem. Tempor voluptate voluptate nulla ex fugiat sunt et nostrud eiusmod dolore. Do sunt aliqua Lorem elit veniam sint Lorem. Proident duis culpa magna ut nostrud nostrud et officia proident consectetur ex magna.\r\n",
            "summary_html": "Lorem id duis adipisicing minim in magna dolore ex reprehenderit irure consequat. Cillum in nostrud cupidatat excepteur adipisicing ad eiusmod consequat velit officia consequat. Labore amet irure ipsum pariatur nulla do duis nostrud. Dolore officia mollit nisi aliquip commodo elit pariatur anim aute velit commodo nulla fugiat id. Lorem id pariatur ex sint tempor minim nisi pariatur ex nulla ut. Veniam officia eiusmod mollit amet.\r\n",
            "tags": [
                "ea",
                "sit",
                "dolor",
                "reprehenderit",
                "ut",
                "deserunt",
                "nostrud"
            ],
            "image": {
                "src": "https://source.unsplash.com/1600x900/?busines,work",
                "alt": "eiusmod ex aliquip magna laborum"
            }
        }
    },
    {
        "article": {
            "title": "labore id culpa do qui",
            "body_html": "Elit ea voluptate duis adipisicing amet occaecat laborum. Velit anim esse cupidatat eiusmod. Culpa est ex nisi sint. Exercitation pariatur in officia aute ut eiusmod anim. Do culpa nulla excepteur non deserunt nulla excepteur ad labore. Occaecat pariatur dolor ad esse esse duis commodo esse excepteur.\r\nEx aliqua dolore dolor dolore exercitation amet quis culpa laborum nisi. Excepteur consequat quis non voluptate nisi cillum aliquip eiusmod aliquip magna enim. Deserunt tempor eu velit irure sint dolor exercitation nisi ex.\r\n",
            "summary_html": "Sunt ex sunt nulla ullamco in aliquip occaecat elit pariatur proident veniam ullamco ex. Do incididunt nulla ad reprehenderit magna adipisicing non ex eu enim ex. Culpa labore nostrud consequat amet ex sint qui. Duis nisi labore tempor in. Incididunt pariatur cillum occaecat sunt non. Velit nostrud amet duis reprehenderit in cupidatat quis minim elit do consectetur esse eiusmod.\r\n",
            "tags": [
                "nulla",
                "laboris",
                "tempor",
                "dolore",
                "veniam",
                "exercitation",
                "sit"
            ],
            "image": {
                "src": "https://source.unsplash.com/1600x900/?busines,work",
                "alt": "ex dolore tempor culpa Lorem"
            }
        }
    },
    {
        "article": {
            "title": "commodo dolore nisi excepteur ullamco",
            "body_html": "Excepteur id ad labore ut irure officia excepteur mollit ipsum pariatur veniam esse elit id. Ipsum deserunt aliquip nulla aliqua. Proident quis occaecat incididunt et enim exercitation culpa voluptate nulla minim ea enim in nulla. Id amet ad culpa ipsum proident duis enim nisi id excepteur enim mollit elit. Culpa dolor culpa elit occaecat ex aliquip tempor magna ut. Dolore labore laborum tempor cillum Lorem anim commodo culpa laboris enim.\r\nLabore mollit cillum Lorem incididunt. Nostrud quis consectetur ullamco commodo ea incididunt ex adipisicing deserunt adipisicing tempor est id. Consectetur cillum sunt amet anim incididunt duis reprehenderit fugiat do. Aliquip tempor sit adipisicing sit cillum ullamco id enim Lorem est occaecat eiusmod.\r\n",
            "summary_html": "Nisi nulla labore dolore minim do veniam laboris non et ullamco laboris mollit tempor. Et voluptate exercitation mollit mollit non pariatur consectetur. Cillum excepteur anim cupidatat qui officia minim voluptate ea nulla elit elit cupidatat sunt tempor. Minim cupidatat sint voluptate veniam incididunt amet. Labore ad aliqua esse do ad quis cupidatat do commodo. Nostrud consectetur ut culpa non est non.\r\n",
            "tags": [
                "labore",
                "nisi",
                "labore",
                "commodo",
                "ipsum",
                "cupidatat",
                "mollit"
            ],
            "image": {
                "src": "https://source.unsplash.com/1600x900/?busines,work",
                "alt": "occaecat excepteur consectetur reprehenderit anim"
            }
        }
    },
    {
        "article": {
            "title": "irure nulla commodo magna ipsum",
            "body_html": "Ullamco quis est consectetur laboris in incididunt excepteur deserunt nulla eiusmod. Id labore Lorem non minim mollit consequat officia pariatur ad. Eiusmod culpa amet sit ut velit sint voluptate ex minim duis dolor est est sit. Eiusmod tempor occaecat sint quis fugiat occaecat. Elit reprehenderit adipisicing ut enim labore velit laboris deserunt Lorem elit. In veniam officia do culpa ut in dolor id velit dolore voluptate duis sunt commodo.\r\nVeniam fugiat esse labore consequat qui sunt veniam labore ut. Et cupidatat cillum officia eiusmod laborum eiusmod non nisi cupidatat amet. Quis laborum id commodo dolore reprehenderit. Excepteur Lorem non mollit amet consectetur aute eu cupidatat laboris duis exercitation aute. Minim aliqua voluptate amet eiusmod magna sunt dolor dolore. Deserunt labore fugiat sit deserunt non. Tempor exercitation fugiat nisi pariatur ea ipsum adipisicing minim mollit cupidatat dolor nisi.\r\n",
            "summary_html": "Magna velit cupidatat aute dolor enim id. Commodo eu aute esse officia nostrud velit veniam. Commodo pariatur laboris magna anim cupidatat occaecat. In et minim Lorem excepteur. Ut excepteur nostrud nulla reprehenderit nostrud proident amet ea ipsum laborum aute ea aute. Adipisicing est irure adipisicing officia adipisicing laboris. Et ea reprehenderit esse esse id voluptate aliqua pariatur ut officia.\r\n",
            "tags": [
                "tempor",
                "cillum",
                "ullamco",
                "irure",
                "consectetur",
                "in",
                "deserunt"
            ],
            "image": {
                "src": "https://source.unsplash.com/1600x900/?busines,work",
                "alt": "fugiat deserunt amet nostrud irure"
            }
        }
    },
    {
        "article": {
            "title": "do fugiat Lorem duis ut",
            "body_html": "Eiusmod in minim culpa duis ullamco nisi. Ut dolor pariatur anim aliqua aliqua fugiat reprehenderit sint consectetur esse. Nulla incididunt mollit officia non culpa fugiat sint pariatur cupidatat. Officia excepteur dolor voluptate est ad duis reprehenderit ea ex duis anim. Occaecat consequat labore nostrud magna. Sunt cupidatat laboris eu amet.\r\nDolore dolor elit nostrud incididunt consectetur elit. Et magna reprehenderit velit excepteur voluptate est eu irure Lorem. Lorem anim esse consectetur irure est sunt enim qui proident culpa pariatur aute. Quis sunt elit laborum ex excepteur laborum quis cillum nisi in nostrud incididunt in. Est ea aute officia laboris deserunt cillum nostrud minim eu proident sint adipisicing in.\r\n",
            "summary_html": "Irure ex velit qui consequat duis Lorem mollit voluptate duis laboris. Labore enim proident adipisicing adipisicing enim dolor sunt quis elit anim labore labore est ullamco. In sunt nisi incididunt dolore pariatur occaecat anim quis in nisi adipisicing.\r\n",
            "tags": [
                "consequat",
                "laboris",
                "sit",
                "esse",
                "veniam",
                "culpa",
                "cupidatat"
            ],
            "image": {
                "src": "https://source.unsplash.com/1600x900/?busines,work",
                "alt": "anim aliqua minim Lorem quis"
            }
        }
    }
]
